 [{
         "name": "星街彗星 3D披露会 Live",
         "vocal": ["星街彗星"],
         "img": "c1000.jpg",
         "songs": [1011, 1012, 1013, 1014, 1015, 1016, 1017]
     },
     {
         "name": "星街彗星 生日前日祭",
         "vocal": ["星街彗星"],
         "img": "1021.png",
         "songs": [1021, 1022, 1024, 1025, 1026, 1027, 1020]
     },
     {
         "name": "物述有栖 4.6 B限歌回",
         "vocal": ["物述有栖"],
         "img": "C3200411174000.jpg",
         "songs": ["3200411174000", "3200411174001", "3200411174002", "3200411174003", "3200411174004", "3200411174005", "3200411174006", "3200411174007", "3200411174008", "3200411174009", "3200411174010", "3200411174011", "3200411174012", "3200411174013", "3200411174014", "3200411174015", "3200411174016", "3200411174017", "3200411174018", "3200411174019", "3200411174020", "3200411174021", "3200411174022", "3200411174023"]
     },
     {
         "name": "3.27 B限歌回",
         "vocal": ["星街彗星"],
         "img": "1028.jpg",
         "songs": ["2190403130609", 1028, "2190403130607", "2190403130606", "2190403130610", "2190403130608", "2190403130602", "2190403130603", "2190403130604", "2190403130605", "2190403130601"]
     },
     {
         "name": "药袋卡尔蒂 夜莺的摇篮曲",
         "vocal": ["药袋卡尔蒂"],
         "img": "C3200425174700.jpg",
         "songs": ["3200420000001", "3200420000002", "3200420000003", "3200420000004", "4200420000005", "4200420000006", "4200420000007", "4200420000008"]
     }
 ]